ECE527/Lab5/Lab5/lab5.log
Command: /home/users7/kg867678/527LSP22/Lab5/./simv -l lab5.log
Chronologic VCS simulator copyright 1991-2017
Contains Synopsys proprietary information.
Compiler version N-2017.12-SP2-2_Full64; Runtime version N-2017.12-SP2-2_Full64;  Apr  4 11:35 2022
VCD+ Writer N-2017.12-SP2-2_Full64 Copyright (c) 1991-2017 by Synopsys Inc.
                   0 clk = 0 reset= 0 b1= 0 b2= 0 b3= 0 signal=x
                   5 clk = 1 reset= 0 b1= 0 b2= 0 b3= 0 signal=0
                  10 clk = 0 reset= 0 b1= 0 b2= 0 b3= 0 signal=0
                  15 clk = 1 reset= 0 b1= 0 b2= 0 b3= 0 signal=0
                  20 clk = 0 reset= 0 b1= 0 b2= 0 b3= 0 signal=0
                  25 clk = 1 reset= 0 b1= 0 b2= 0 b3= 0 signal=0
                  30 clk = 0 reset= 0 b1= 0 b2= 0 b3= 0 signal=0
                  35 clk = 1 reset= 0 b1= 0 b2= 0 b3= 0 signal=0
                  40 clk = 0 reset= 0 b1= 0 b2= 0 b3= 0 signal=0
                  45 clk = 1 reset= 0 b1= 0 b2= 0 b3= 0 signal=0
                  50 clk = 0 reset= 0 b1= 0 b2= 0 b3= 0 signal=0
                  55 clk = 1 reset= 0 b1= 0 b2= 0 b3= 0 signal=0
                  60 clk = 0 reset= 0 b1= 0 b2= 0 b3= 0 signal=0
                  65 clk = 1 reset= 0 b1= 0 b2= 0 b3= 0 signal=0
                  70 clk = 0 reset= 0 b1= 0 b2= 0 b3= 0 signal=0
                  75 clk = 1 reset= 0 b1= 0 b2= 0 b3= 0 signal=0
                  80 clk = 0 reset= 0 b1= 0 b2= 0 b3= 0 signal=0
                  85 clk = 1 reset= 0 b1= 0 b2= 0 b3= 0 signal=0
                  90 clk = 0 reset= 0 b1= 0 b2= 0 b3= 0 signal=0
                  95 clk = 1 reset= 0 b1= 0 b2= 0 b3= 0 signal=0
                 100 clk = 0 reset= 0 b1= 0 b2= 0 b3= 0 signal=0
                 105 clk = 1 reset= 0 b1= 0 b2= 0 b3= 0 signal=0
                 110 clk = 0 reset= 0 b1= 0 b2= 0 b3= 0 signal=0
                 115 clk = 1 reset= 0 b1= 0 b2= 0 b3= 0 signal=0
                 120 clk = 0 reset= 0 b1= 0 b2= 0 b3= 0 signal=0
                 125 clk = 1 reset= 0 b1= 0 b2= 0 b3= 0 signal=0
                 130 clk = 0 reset= 0 b1= 0 b2= 0 b3= 0 signal=0
                 135 clk = 1 reset= 0 b1= 0 b2= 0 b3= 0 signal=0
                 140 clk = 0 reset= 0 b1= 0 b2= 0 b3= 0 signal=0
                 145 clk = 1 reset= 0 b1= 0 b2= 0 b3= 0 signal=0
                 150 clk = 0 reset= 0 b1= 0 b2= 0 b3= 0 signal=0
                 155 clk = 1 reset= 0 b1= 0 b2= 0 b3= 0 signal=0
                 160 clk = 0 reset= 0 b1= 0 b2= 0 b3= 0 signal=0
                 165 clk = 1 reset= 0 b1= 0 b2= 0 b3= 0 signal=0
                 170 clk = 0 reset= 0 b1= 0 b2= 0 b3= 0 signal=0
                 175 clk = 1 reset= 0 b1= 0 b2= 0 b3= 0 signal=0
                 180 clk = 0 reset= 0 b1= 0 b2= 0 b3= 0 signal=0
                 185 clk = 1 reset= 0 b1= 0 b2= 0 b3= 0 signal=0
                 190 clk = 0 reset= 0 b1= 0 b2= 0 b3= 0 signal=0
                 195 clk = 1 reset= 0 b1= 0 b2= 0 b3= 0 signal=0
                 200 clk = 0 reset= 0 b1= 1 b2= 0 b3= 0 signal=0
                 205 clk = 1 reset= 0 b1= 1 b2= 0 b3= 0 signal=1
                 210 clk = 0 reset= 0 b1= 1 b2= 0 b3= 0 signal=1
                 215 clk = 1 reset= 0 b1= 1 b2= 0 b3= 0 signal=0
                 220 clk = 0 reset= 0 b1= 1 b2= 0 b3= 0 signal=0
                 225 clk = 1 reset= 0 b1= 1 b2= 0 b3= 0 signal=0
                 230 clk = 0 reset= 0 b1= 1 b2= 0 b3= 0 signal=0
                 235 clk = 1 reset= 0 b1= 1 b2= 0 b3= 0 signal=0
                 240 clk = 0 reset= 0 b1= 1 b2= 0 b3= 0 signal=0
                 245 clk = 1 reset= 0 b1= 1 b2= 0 b3= 0 signal=1
                 250 clk = 0 reset= 0 b1= 1 b2= 0 b3= 0 signal=1
                 255 clk = 1 reset= 0 b1= 1 b2= 0 b3= 0 signal=0
                 260 clk = 0 reset= 0 b1= 1 b2= 0 b3= 0 signal=0
                 265 clk = 1 reset= 0 b1= 1 b2= 0 b3= 0 signal=0
                 270 clk = 0 reset= 0 b1= 1 b2= 0 b3= 0 signal=0
                 275 clk = 1 reset= 0 b1= 1 b2= 0 b3= 0 signal=0
                 280 clk = 0 reset= 0 b1= 1 b2= 0 b3= 0 signal=0
                 285 clk = 1 reset= 0 b1= 1 b2= 0 b3= 0 signal=1
                 290 clk = 0 reset= 0 b1= 1 b2= 0 b3= 0 signal=1
                 295 clk = 1 reset= 0 b1= 1 b2= 0 b3= 0 signal=0
                 300 clk = 0 reset= 0 b1= 1 b2= 0 b3= 0 signal=0
                 305 clk = 1 reset= 0 b1= 1 b2= 0 b3= 0 signal=0
                 310 clk = 0 reset= 0 b1= 1 b2= 0 b3= 0 signal=0
                 315 clk = 1 reset= 0 b1= 1 b2= 0 b3= 0 signal=0
                 320 clk = 0 reset= 0 b1= 1 b2= 0 b3= 0 signal=0
                 325 clk = 1 reset= 0 b1= 1 b2= 0 b3= 0 signal=1
                 330 clk = 0 reset= 0 b1= 1 b2= 0 b3= 0 signal=1
                 335 clk = 1 reset= 0 b1= 1 b2= 0 b3= 0 signal=0
                 340 clk = 0 reset= 0 b1= 1 b2= 0 b3= 0 signal=0
                 345 clk = 1 reset= 0 b1= 1 b2= 0 b3= 0 signal=0
                 350 clk = 0 reset= 0 b1= 1 b2= 0 b3= 1 signal=0
                 355 clk = 1 reset= 0 b1= 1 b2= 0 b3= 1 signal=1
                 360 clk = 0 reset= 0 b1= 1 b2= 0 b3= 1 signal=1
                 365 clk = 1 reset= 0 b1= 1 b2= 0 b3= 1 signal=1
                 370 clk = 0 reset= 0 b1= 1 b2= 0 b3= 1 signal=1
                 375 clk = 1 reset= 0 b1= 1 b2= 0 b3= 1 signal=0
                 380 clk = 0 reset= 0 b1= 1 b2= 0 b3= 1 signal=0
                 385 clk = 1 reset= 0 b1= 1 b2= 0 b3= 1 signal=0
                 390 clk = 0 reset= 0 b1= 1 b2= 0 b3= 1 signal=0
                 395 clk = 1 reset= 0 b1= 1 b2= 0 b3= 1 signal=1
                 400 clk = 0 reset= 0 b1= 1 b2= 0 b3= 1 signal=1
                 405 clk = 1 reset= 0 b1= 1 b2= 0 b3= 1 signal=1
                 410 clk = 0 reset= 0 b1= 1 b2= 0 b3= 1 signal=1
                 415 clk = 1 reset= 0 b1= 1 b2= 0 b3= 1 signal=0
                 420 clk = 0 reset= 0 b1= 1 b2= 0 b3= 1 signal=0
                 425 clk = 1 reset= 0 b1= 1 b2= 0 b3= 1 signal=0
                 430 clk = 0 reset= 0 b1= 1 b2= 0 b3= 1 signal=0
                 435 clk = 1 reset= 0 b1= 1 b2= 0 b3= 1 signal=1
                 440 clk = 0 reset= 0 b1= 1 b2= 0 b3= 1 signal=1
                 445 clk = 1 reset= 0 b1= 1 b2= 0 b3= 1 signal=1
                 450 clk = 0 reset= 0 b1= 1 b2= 0 b3= 1 signal=1
                 455 clk = 1 reset= 0 b1= 1 b2= 0 b3= 1 signal=0
                 460 clk = 0 reset= 0 b1= 1 b2= 0 b3= 1 signal=0
                 465 clk = 1 reset= 0 b1= 1 b2= 0 b3= 1 signal=0
                 470 clk = 0 reset= 0 b1= 1 b2= 0 b3= 1 signal=0
                 475 clk = 1 reset= 0 b1= 1 b2= 0 b3= 1 signal=1
                 480 clk = 0 reset= 0 b1= 1 b2= 0 b3= 1 signal=1
                 485 clk = 1 reset= 0 b1= 1 b2= 0 b3= 1 signal=1
                 490 clk = 0 reset= 0 b1= 1 b2= 0 b3= 1 signal=1
                 495 clk = 1 reset= 0 b1= 1 b2= 0 b3= 1 signal=0
                 500 clk = 0 reset= 0 b1= 0 b2= 1 b3= 0 signal=0
                 505 clk = 1 reset= 0 b1= 0 b2= 1 b3= 0 signal=0
                 510 clk = 0 reset= 0 b1= 0 b2= 1 b3= 0 signal=0
                 515 clk = 1 reset= 0 b1= 0 b2= 1 b3= 0 signal=0
                 520 clk = 0 reset= 0 b1= 0 b2= 1 b3= 0 signal=0
                 525 clk = 1 reset= 0 b1= 0 b2= 1 b3= 0 signal=0
                 530 clk = 0 reset= 0 b1= 0 b2= 1 b3= 0 signal=0
                 535 clk = 1 reset= 0 b1= 0 b2= 1 b3= 0 signal=0
                 540 clk = 0 reset= 0 b1= 0 b2= 1 b3= 0 signal=0
                 545 clk = 1 reset= 0 b1= 0 b2= 1 b3= 0 signal=0
                 550 clk = 0 reset= 0 b1= 0 b2= 1 b3= 0 signal=0
                 555 clk = 1 reset= 0 b1= 0 b2= 1 b3= 0 signal=0
                 560 clk = 0 reset= 0 b1= 0 b2= 1 b3= 0 signal=0
                 565 clk = 1 reset= 0 b1= 0 b2= 1 b3= 0 signal=1
                 570 clk = 0 reset= 0 b1= 0 b2= 1 b3= 0 signal=1
                 575 clk = 1 reset= 0 b1= 0 b2= 1 b3= 0 signal=0
                 580 clk = 0 reset= 0 b1= 0 b2= 1 b3= 0 signal=0
                 585 clk = 1 reset= 0 b1= 0 b2= 1 b3= 0 signal=0
                 590 clk = 0 reset= 0 b1= 0 b2= 1 b3= 0 signal=0
                 595 clk = 1 reset= 0 b1= 0 b2= 1 b3= 0 signal=0
                 600 clk = 0 reset= 0 b1= 0 b2= 1 b3= 0 signal=0
                 605 clk = 1 reset= 0 b1= 0 b2= 1 b3= 0 signal=0
                 610 clk = 0 reset= 0 b1= 0 b2= 1 b3= 0 signal=0
                 615 clk = 1 reset= 0 b1= 0 b2= 1 b3= 0 signal=0
                 620 clk = 0 reset= 0 b1= 0 b2= 1 b3= 0 signal=0
                 625 clk = 1 reset= 0 b1= 0 b2= 1 b3= 0 signal=0
                 630 clk = 0 reset= 0 b1= 0 b2= 1 b3= 0 signal=0
                 635 clk = 1 reset= 0 b1= 0 b2= 1 b3= 0 signal=0
                 640 clk = 0 reset= 0 b1= 0 b2= 1 b3= 0 signal=0
                 645 clk = 1 reset= 0 b1= 0 b2= 1 b3= 0 signal=1
                 650 clk = 0 reset= 0 b1= 0 b2= 1 b3= 0 signal=1
                 655 clk = 1 reset= 0 b1= 0 b2= 1 b3= 0 signal=0
                 660 clk = 0 reset= 0 b1= 0 b2= 1 b3= 0 signal=0
                 665 clk = 1 reset= 0 b1= 0 b2= 1 b3= 0 signal=0
                 670 clk = 0 reset= 0 b1= 0 b2= 1 b3= 0 signal=0
                 675 clk = 1 reset= 0 b1= 0 b2= 1 b3= 0 signal=0
                 680 clk = 0 reset= 0 b1= 0 b2= 1 b3= 0 signal=0
                 685 clk = 1 reset= 0 b1= 0 b2= 1 b3= 0 signal=0
                 690 clk = 0 reset= 0 b1= 0 b2= 1 b3= 0 signal=0
                 695 clk = 1 reset= 0 b1= 0 b2= 1 b3= 0 signal=0
                 700 clk = 0 reset= 0 b1= 0 b2= 1 b3= 1 signal=0
                 705 clk = 1 reset= 0 b1= 0 b2= 1 b3= 1 signal=0
                 710 clk = 0 reset= 0 b1= 0 b2= 1 b3= 1 signal=0
                 715 clk = 1 reset= 0 b1= 0 b2= 1 b3= 1 signal=1
                 720 clk = 0 reset= 0 b1= 0 b2= 1 b3= 1 signal=1
                 725 clk = 1 reset= 0 b1= 0 b2= 1 b3= 1 signal=1
                 730 clk = 0 reset= 0 b1= 0 b2= 1 b3= 1 signal=1
                 735 clk = 1 reset= 0 b1= 0 b2= 1 b3= 1 signal=0
                 740 clk = 0 reset= 0 b1= 0 b2= 1 b3= 1 signal=0
                 745 clk = 1 reset= 0 b1= 0 b2= 1 b3= 1 signal=0
                 750 clk = 0 reset= 1 b1= 0 b2= 1 b3= 1 signal=0
                 755 clk = 1 reset= 1 b1= 0 b2= 1 b3= 1 signal=0
                 760 clk = 0 reset= 1 b1= 0 b2= 1 b3= 1 signal=0
                 765 clk = 1 reset= 1 b1= 0 b2= 1 b3= 1 signal=0
                 770 clk = 0 reset= 1 b1= 0 b2= 1 b3= 1 signal=0
                 775 clk = 1 reset= 1 b1= 0 b2= 1 b3= 1 signal=0
                 780 clk = 0 reset= 1 b1= 0 b2= 1 b3= 1 signal=0
                 785 clk = 1 reset= 1 b1= 0 b2= 1 b3= 1 signal=0
                 790 clk = 0 reset= 1 b1= 0 b2= 1 b3= 1 signal=0
                 795 clk = 1 reset= 1 b1= 0 b2= 1 b3= 1 signal=0
                 800 clk = 0 reset= 0 b1= 0 b2= 1 b3= 1 signal=0
                 805 clk = 1 reset= 0 b1= 0 b2= 1 b3= 1 signal=0
                 810 clk = 0 reset= 0 b1= 0 b2= 1 b3= 1 signal=0
                 815 clk = 1 reset= 0 b1= 0 b2= 1 b3= 1 signal=0
                 820 clk = 0 reset= 0 b1= 0 b2= 1 b3= 1 signal=0
                 825 clk = 1 reset= 0 b1= 0 b2= 1 b3= 1 signal=0
                 830 clk = 0 reset= 0 b1= 0 b2= 1 b3= 1 signal=0
                 835 clk = 1 reset= 0 b1= 0 b2= 1 b3= 1 signal=0
                 840 clk = 0 reset= 0 b1= 0 b2= 1 b3= 1 signal=0
                 845 clk = 1 reset= 0 b1= 0 b2= 1 b3= 1 signal=0
                 850 clk = 0 reset= 0 b1= 0 b2= 1 b3= 1 signal=0
                 855 clk = 1 reset= 0 b1= 0 b2= 1 b3= 1 signal=0
                 860 clk = 0 reset= 0 b1= 0 b2= 1 b3= 1 signal=0
                 865 clk = 1 reset= 0 b1= 0 b2= 1 b3= 1 signal=1
                 870 clk = 0 reset= 0 b1= 0 b2= 1 b3= 1 signal=1
                 875 clk = 1 reset= 0 b1= 0 b2= 1 b3= 1 signal=1
                 880 clk = 0 reset= 0 b1= 0 b2= 1 b3= 1 signal=1
                 885 clk = 1 reset= 0 b1= 0 b2= 1 b3= 1 signal=0
                 890 clk = 0 reset= 0 b1= 0 b2= 1 b3= 1 signal=0
                 895 clk = 1 reset= 0 b1= 0 b2= 1 b3= 1 signal=0
                 900 clk = 0 reset= 0 b1= 0 b2= 1 b3= 1 signal=0
                 905 clk = 1 reset= 0 b1= 0 b2= 1 b3= 1 signal=0
                 910 clk = 0 reset= 0 b1= 0 b2= 1 b3= 1 signal=0
                 915 clk = 1 reset= 0 b1= 0 b2= 1 b3= 1 signal=0
$finish called from file "fsm_tb.v", line 28.
$finish at simulation time                  920
           V C S   S i m u l a t i o n   R e p o r t 
Time: 920
CPU Time:      0.230 seconds;       Data structure size:   0.0Mb
Mon Apr  4 11:35:58 2022
